…
``` r
dat_sale %>%
  group_by(MSRP,PRODUCTCODE) %>%
  summarise(n = n())
```

    ## # A tibble: 109 x 3
    ## # Groups: MSRP [?]
    ##     MSRP PRODUCTCODE     n
    ##    <int> <chr>       <int>
    ##  1    33 S24_1937       25
    ##  2    35 S24_2840       28
    ##  3    37 S24_2972       27
    ##  4    40 S32_2206       25
    ##  5    41 S24_3969       22
    ##  6    43 S50_1341       26
    ##  7    44 S24_2022       25
    ##  8    49 S72_1253       27
    ##  9    50 S18_4668       27
    ## 10    50 S24_1628       24
    ## # ... with 99 more rows
…
``` r
length(levels(as.factor(dat_sale$MSRP)))
```

    ## [1] 80

So MSRP is nested in PRODUCTCODE... cannot have both of them in the same model

``` r
dat_sale %>%
  group_by(ORDERNUMBER) %>%
  summarise(n = n(), a = mean(SALES), b = sd(SALES))
```

    ## # A tibble: 307 x 4
    ##    ORDERNUMBER     n     a     b
    ##          <int> <int> <dbl> <dbl>
    ##  1       10100     4  3033  1602
    ##  2       10101     4  2858  1148
    ##  3       10102     2  3432  1946
    ##  4       10103    16  3419  1250
    ##  5       10104    13  3432  1426
    ##  6       10105    15  3925  2042
    ##  7       10106    18  3121  1003
    ##  8       10107     8  3223  1313
    ##  9       10108    16  3453  1512
    ## 10       10109     6  4566  2517
    ## # ... with 297 more rows
…
